Timestamp,hour,day,OAT,SAT,RH,CHW_Temp,Valve,IOT
2022-02-05 14:30:00,14,6,16.170013,24.8,56,18.9,100,24.1
2022-02-05 14:40:00,14,6,16.170013,25.0,56,18.9,100,24.1
2022-02-05 14:50:00,14,6,16.170013,24.9,56,19.0,100,24.1
2022-02-05 15:00:00,15,6,15.619995,25.0,56,19.0,100,24.1
2022-02-05 15:10:00,15,6,15.619995,25.0,56,19.0,100,24.2
2022-02-05 15:20:00,15,6,15.619995,24.8,56,19.1,100,24.2
2022-02-05 15:30:00,15,6,15.619995,24.9,56,19.0,100,24.2
2022-02-05 15:40:00,15,6,15.619995,25.0,55,19.0,100,24.2
2022-02-05 16:00:00,16,6,15.619995,25.1,55,19.1,100,24.3
2022-02-05 16:10:00,16,6,15.619995,25.0,56,19.1,100,24.3
2022-02-05 16:20:00,16,6,15.619995,25.0,56,19.2,100,24.3
2022-02-05 16:30:00,16,6,15.619995,25.1,56,19.1,100,24.3
2022-02-05 16:40:00,16,6,15.619995,25.0,56,19.2,100,24.4
2022-02-05 16:50:00,16,6,15.619995,25.0,56,19.2,100,24.4
2022-02-05 17:20:00,17,6,14.5,31.3,57,31.1,100,24.6
2022-02-05 17:40:00,17,6,10.660004,32.7,56,32.5,100,24.8
2022-02-05 18:00:00,18,6,13.390015,34.0,56,34.2,100,24.9
2022-02-05 18:10:00,18,6,13.390015,34.5,57,34.7,100,25.0
2022-02-05 18:20:00,18,6,13.390015,35.0,56,35.2,100,25.0
2022-02-05 18:30:00,18,6,13.390015,35.6,57,35.9,100,25.1
2022-02-05 18:40:00,18,6,13.390015,36.0,57,36.3,100,25.1
2022-02-05 18:50:00,18,6,13.390015,36.2,57,36.5,100,25.2
2022-02-05 19:10:00,19,6,13.390015,37.2,57,37.8,100,25.3
2022-02-05 19:20:00,19,6,13.390015,37.7,57,38.2,100,25.3
2022-02-05 19:50:00,19,6,13.390015,38.8,57,39.1,100,25.4
2022-02-05 20:00:00,20,6,13.390015,39.2,57,39.6,100,25.4
2022-02-05 20:10:00,20,6,12.839996,39.5,57,39.7,100,25.4
2022-02-05 20:20:00,20,6,12.839996,39.7,56,40.0,100,25.4
2022-02-05 20:30:00,20,6,12.839996,40.0,56,40.4,100,25.6
2022-02-05 20:40:00,20,6,12.839996,40.3,57,40.6,100,25.6
2022-02-05 20:50:00,20,6,12.839996,40.6,56,40.9,100,25.6
2022-02-05 21:00:00,21,6,12.839996,40.9,56,41.1,100,25.7
2022-02-05 21:10:00,21,6,12.839996,39.9,56,40.0,100,25.7
2022-02-05 21:20:00,21,6,12.839996,39.3,56,39.6,100,25.7
2022-02-05 21:30:00,21,6,12.839996,38.5,56,38.7,100,25.7
2022-02-05 21:40:00,21,6,12.839996,37.9,56,38.0,100,25.6
2022-02-05 22:00:00,22,6,12.839996,36.8,56,36.9,100,25.7
2022-02-05 22:10:00,22,6,12.279999,36.3,56,36.4,100,25.7
2022-02-05 22:20:00,22,6,12.279999,35.8,56,36.0,100,25.7
2022-02-05 22:30:00,22,6,12.279999,27.7,56,34.6,100,25.5
2022-02-05 22:40:00,22,6,12.279999,28.6,53,34.6,0,25.3
2022-02-05 22:50:00,22,6,12.279999,28.3,45,34.1,0,25.2
2022-02-06 09:10:00,9,7,11.170013,15.3,64,20.6,0,23.2
2022-02-06 09:20:00,9,7,11.170013,15.2,64,20.5,0,23.2
2022-02-06 09:30:00,9,7,11.170013,15.1,64,20.4,0,23.2
2022-02-06 10:00:00,10,7,11.730011,15.4,65,20.1,0,23.3
2022-02-06 10:10:00,10,7,11.730011,15.2,65,20.1,0,23.2
2022-02-06 10:20:00,10,7,11.730011,14.8,65,20.0,0,23.2
2022-02-06 10:30:00,10,7,12.279999,15.1,65,20.0,0,23.2
2022-02-06 10:40:00,10,7,12.839996,21.7,61,23.1,100,23.2
2022-02-06 10:50:00,10,7,12.839996,23.0,59,22.7,100,23.3
2022-02-06 11:00:00,11,7,12.839996,23.4,59,22.3,100,23.5
2022-02-06 11:10:00,11,7,12.839996,23.7,59,21.8,100,23.6
2022-02-06 11:20:00,11,7,13.390015,23.8,58,21.4,100,23.7
2022-02-06 11:40:00,11,7,13.950012,24.2,57,21.0,100,23.7
2022-02-06 12:00:00,12,7,14.5,24.4,56,21.0,100,23.8
2022-02-06 12:10:00,12,7,14.5,24.3,56,20.9,100,23.8
2022-02-06 12:20:00,12,7,14.5,24.4,56,20.7,100,23.9
2022-02-06 12:50:00,12,7,15.059998,24.7,54,20.5,100,24.0
2022-02-06 13:00:00,13,7,15.619995,24.7,54,20.4,100,24.0
2022-02-06 13:10:00,13,7,15.619995,24.8,54,20.2,100,24.0
2022-02-06 13:30:00,13,7,15.619995,24.8,54,20.1,100,24.1
2022-02-06 13:40:00,13,7,15.619995,24.8,54,20.2,100,24.1
2022-02-06 13:50:00,13,7,15.619995,24.9,54,20.3,100,24.1
2022-02-06 14:00:00,14,7,15.619995,25.0,53,20.4,100,24.2
2022-02-06 14:10:00,14,7,15.619995,25.1,53,20.4,100,24.1
2022-02-06 14:30:00,14,7,15.619995,25.1,53,20.4,100,24.2
2022-02-06 14:40:00,14,7,15.619995,25.2,53,20.4,100,24.2
2022-02-06 14:50:00,14,7,15.619995,25.1,53,20.4,100,24.2
2022-02-06 15:00:00,15,7,15.619995,25.2,53,20.3,100,24.2
2022-02-06 15:10:00,15,7,16.170013,25.2,53,20.3,100,24.3
2022-02-06 15:40:00,15,7,15.619995,25.2,53,20.2,100,24.4
2022-02-06 15:50:00,15,7,15.619995,25.3,53,20.2,100,24.4
2022-02-06 16:00:00,16,7,15.619995,25.2,53,20.2,100,24.4
2022-02-06 16:10:00,16,7,15.619995,25.2,53,20.1,100,24.4
2022-02-06 16:20:00,16,7,15.619995,25.2,53,20.1,100,24.5
2022-02-06 16:30:00,16,7,15.619995,25.3,54,20.1,100,24.5
2022-02-06 16:40:00,16,7,15.619995,25.3,54,20.1,100,24.5
2022-02-06 16:50:00,16,7,15.619995,25.3,55,20.1,100,24.5
2022-02-06 17:00:00,17,7,15.619995,32.2,55,32.8,100,24.6
2022-02-06 17:10:00,17,7,15.619995,29.4,55,29.2,100,24.7
2022-02-06 17:20:00,17,7,15.619995,31.5,54,31.5,100,24.8
2022-02-06 17:40:00,17,7,15.059998,32.9,55,32.9,100,24.9
2022-02-06 18:00:00,18,7,15.059998,34.2,55,34.2,100,25.1
2022-02-06 18:10:00,18,7,15.059998,34.7,56,34.8,100,25.1
2022-02-06 18:20:00,18,7,14.5,35.2,57,35.5,100,25.1
2022-02-06 18:30:00,18,7,14.5,35.7,57,36.0,100,25.2
2022-02-06 18:40:00,18,7,14.5,36.2,56,36.4,100,25.2
2022-02-06 18:50:00,18,7,15.059998,36.7,56,36.9,100,25.2
2022-02-06 19:00:00,19,7,15.059998,37.1,55,37.4,100,25.3
2022-02-06 19:10:00,19,7,15.059998,37.6,54,37.8,100,25.3
2022-02-06 19:20:00,19,7,14.5,38.0,53,38.2,100,25.4
2022-02-06 19:30:00,19,7,13.950012,38.2,52,38.7,100,25.4
2022-02-06 19:40:00,19,7,13.390015,38.6,52,39.0,100,25.5
2022-02-06 19:50:00,19,7,13.390015,39.0,52,39.3,100,25.6
2022-02-06 20:00:00,20,7,13.390015,39.3,52,39.6,100,25.5
2022-02-06 20:10:00,20,7,13.390015,39.6,52,40.0,100,25.5
2022-02-06 20:20:00,20,7,13.390015,39.9,53,40.3,100,25.6
2022-02-06 20:30:00,20,7,13.390015,40.1,54,40.5,100,25.6
2022-02-06 20:40:00,20,7,13.390015,40.4,54,40.8,100,25.6
2022-02-06 20:50:00,20,7,13.390015,40.7,54,40.9,100,25.7
2022-02-06 21:10:00,21,7,12.839996,41.2,54,41.4,100,25.7
2022-02-06 21:20:00,21,7,12.839996,41.4,54,41.8,100,25.7
2022-02-06 21:30:00,21,7,12.839996,41.3,54,41.8,100,25.8
2022-02-06 22:00:00,22,7,12.839996,41.5,53,41.8,100,25.8
2022-02-06 22:10:00,22,7,12.839996,41.2,53,41.4,100,25.9
2022-02-06 22:30:00,22,7,12.839996,39.4,53,39.6,100,25.4
2022-02-06 22:40:00,22,7,12.839996,38.6,50,41.7,0,25.2
2022-02-06 22:50:00,22,7,12.839996,37.8,43,40.8,0,25.1
2022-02-07 09:00:00,9,1,12.279999,16.7,58,22.5,0,23.4
2022-02-07 09:10:00,9,1,13.390015,16.9,58,22.4,0,23.4
2022-02-07 09:20:00,9,1,13.950012,16.4,58,22.3,0,23.4
2022-02-07 09:30:00,9,1,13.950012,16.8,59,22.2,0,23.4
2022-02-07 09:50:00,9,1,14.5,16.9,59,21.9,0,23.3
2022-02-07 10:00:00,10,1,15.059998,16.8,59,21.8,0,23.4
2022-02-07 10:30:00,10,1,15.619995,16.4,60,21.5,0,23.4
2022-02-07 10:50:00,10,1,16.730011,21.2,56,23.7,100,23.5
2022-02-07 11:00:00,11,1,16.730011,20.3,52,23.1,100,23.5
2022-02-07 11:10:00,11,1,16.730011,20.3,50,23.1,100,23.6
2022-02-07 11:20:00,11,1,16.730011,20.2,50,22.9,100,23.6
2022-02-07 11:30:00,11,1,17.839996,22.5,55,22.7,100,23.8
2022-02-07 11:40:00,11,1,17.279999,24.1,54,22.5,100,23.8
2022-02-07 11:50:00,11,1,17.839996,24.5,54,22.3,100,24.0
2022-02-07 12:00:00,12,1,17.839996,24.7,55,22.0,100,24.0
2022-02-07 12:10:00,12,1,17.839996,24.7,55,21.8,100,24.0
2022-02-07 12:30:00,12,1,17.839996,24.7,54,21.5,100,24.1
2022-02-07 12:40:00,12,1,17.839996,24.8,54,21.4,100,24.1
2022-02-07 13:00:00,13,1,17.839996,24.9,54,21.2,100,24.2
2022-02-07 13:10:00,13,1,17.839996,25.0,54,21.1,100,24.2
2022-02-07 13:20:00,13,1,18.390015,25.0,53,21.0,100,24.2
2022-02-07 13:30:00,13,1,18.390015,24.9,53,21.0,100,24.2
2022-02-07 13:40:00,13,1,18.950012,25.0,53,21.0,100,24.2
2022-02-07 14:00:00,14,1,18.950012,25.1,52,21.0,100,24.3
2022-02-07 14:10:00,14,1,18.950012,25.2,53,20.9,100,24.3
2022-02-07 14:20:00,14,1,18.950012,25.2,52,20.9,100,24.4
2022-02-07 14:30:00,14,1,18.950012,25.1,52,20.7,100,24.4
2022-02-07 14:40:00,14,1,18.950012,25.2,52,20.6,100,24.4
2022-02-07 14:50:00,14,1,18.950012,25.2,52,20.6,100,24.5
2022-02-07 15:00:00,15,1,18.950012,25.3,53,20.5,100,24.4
2022-02-07 15:30:00,15,1,18.390015,25.4,54,20.5,100,24.5
2022-02-07 15:40:00,15,1,17.839996,25.3,54,20.5,100,24.5
2022-02-07 15:50:00,15,1,17.839996,25.3,54,20.5,100,24.5
2022-02-07 16:00:00,16,1,17.839996,25.3,55,20.5,100,24.5
2022-02-07 16:20:00,16,1,17.839996,25.4,55,20.5,100,24.6
2022-02-07 16:30:00,16,1,17.839996,25.3,55,20.5,100,24.6
2022-02-07 16:40:00,16,1,17.279999,25.4,56,20.5,100,24.6
2022-02-07 16:50:00,16,1,17.279999,25.3,56,20.5,100,24.6
2022-02-07 17:00:00,17,1,17.279999,34.1,56,35.5,100,24.7
2022-02-07 17:10:00,17,1,17.279999,31.1,56,30.6,100,24.8
2022-02-07 17:20:00,17,1,16.730011,33.1,56,33.3,100,24.9
2022-02-07 17:40:00,17,1,12.830017,34.3,56,34.5,100,25.1
2022-02-07 17:50:00,17,1,15.619995,34.9,56,35.1,100,25.2
2022-02-07 18:00:00,18,1,15.619995,35.5,55,35.7,100,25.2
2022-02-07 18:10:00,18,1,15.619995,36.0,55,36.4,100,25.3
2022-02-07 18:20:00,18,1,15.619995,36.5,55,36.9,100,25.3
2022-02-07 18:30:00,18,1,15.619995,37.0,55,37.3,100,25.3
2022-02-07 18:40:00,18,1,11.990021,37.4,54,37.8,100,25.3
2022-02-07 18:50:00,18,1,11.990021,37.9,54,38.2,100,25.4
2022-02-07 19:00:00,19,1,11.990021,38.3,54,38.7,100,25.4
2022-02-07 19:10:00,19,1,14.5,38.7,54,39.1,100,25.4
2022-02-07 19:20:00,19,1,14.5,39.1,54,39.6,100,25.4
2022-02-07 19:30:00,19,1,11.330017,39.5,54,39.9,100,25.6
2022-02-07 19:40:00,19,1,11.330017,39.8,54,40.3,100,25.5
2022-02-07 19:50:00,19,1,11.330017,40.2,54,40.5,100,25.6
2022-02-07 20:00:00,20,1,11.330017,40.5,54,40.9,100,25.6
2022-02-07 20:10:00,20,1,13.950012,40.8,54,41.3,100,25.6
2022-02-07 20:30:00,20,1,13.390015,41.4,54,41.8,100,25.8
2022-02-07 20:40:00,20,1,13.390015,41.7,54,42.2,100,25.8
2022-02-07 21:00:00,21,1,13.390015,41.5,54,41.9,100,25.8
2022-02-07 21:10:00,21,1,13.390015,41.3,53,41.8,100,25.8
2022-02-07 21:20:00,21,1,13.390015,41.4,53,41.8,100,25.9
2022-02-07 21:30:00,21,1,13.390015,41.4,53,41.8,100,25.9
2022-02-07 21:40:00,21,1,13.390015,41.4,53,41.8,100,25.9
2022-02-07 21:50:00,21,1,13.390015,41.5,53,41.8,100,25.9
2022-02-07 22:10:00,22,1,13.390015,40.6,54,40.9,100,25.9
2022-02-07 22:20:00,22,1,13.390015,40.1,54,40.5,100,25.9
2022-02-07 22:30:00,22,1,13.390015,39.5,54,40.0,100,25.8
2022-02-07 22:40:00,22,1,12.839996,39.0,53,39.5,100,25.6
2022-02-07 22:50:00,22,1,12.839996,38.7,53,39.1,100,25.4
2022-02-08 09:00:00,9,2,12.279999,14.4,59,22.2,0,23.5
2022-02-08 09:10:00,9,2,12.279999,15.7,60,22.0,0,23.4
2022-02-08 09:20:00,9,2,12.839996,16.0,59,21.9,0,23.5
2022-02-08 09:30:00,9,2,12.839996,16.1,59,21.8,0,23.5
2022-02-08 09:50:00,9,2,13.390015,16.2,59,21.6,0,23.5
2022-02-08 10:00:00,10,2,13.390015,16.4,59,21.4,0,23.5
2022-02-08 10:20:00,10,2,13.950012,18.1,58,21.2,0,23.5
2022-02-08 10:30:00,10,2,15.059998,18.2,57,21.1,0,23.5
2022-02-08 10:50:00,10,2,15.619995,23.9,54,22.5,100,23.7
2022-02-08 11:00:00,11,2,15.619995,24.2,54,21.9,100,23.8
2022-02-08 11:20:00,11,2,15.619995,24.6,54,21.4,100,23.9
2022-02-08 11:40:00,11,2,16.730011,24.8,53,21.0,100,24.1
2022-02-08 11:50:00,11,2,16.730011,24.9,52,21.0,100,24.1
2022-02-08 12:30:00,12,2,16.730011,25.2,51,20.5,100,24.3
2022-02-08 12:40:00,12,2,17.279999,25.1,51,20.5,100,24.3
2022-02-08 12:50:00,12,2,17.839996,25.1,50,20.5,100,24.3
2022-02-08 13:00:00,13,2,17.839996,25.1,49,20.5,100,24.3
2022-02-08 13:20:00,13,2,17.839996,25.2,49,20.4,100,24.4
2022-02-08 13:40:00,13,2,17.839996,25.3,50,20.2,100,24.4
2022-02-08 13:50:00,13,2,17.839996,25.3,50,20.2,100,24.5
2022-02-08 14:00:00,14,2,18.390015,25.3,50,20.2,100,24.5
2022-02-08 14:10:00,14,2,17.279999,25.4,50,20.2,100,24.5
2022-02-08 14:20:00,14,2,17.839996,25.5,50,20.2,100,24.5
2022-02-08 14:40:00,14,2,18.390015,25.4,49,20.3,100,24.5
2022-02-08 15:00:00,15,2,18.390015,25.5,50,20.4,100,24.5
2022-02-08 15:30:00,15,2,17.839996,25.6,49,20.5,100,24.6
2022-02-08 15:40:00,15,2,17.839996,25.5,50,20.5,100,24.6
2022-02-08 15:50:00,15,2,17.839996,25.5,50,20.5,100,24.5
2022-02-08 16:00:00,16,2,17.839996,25.6,50,20.5,100,24.6
2022-02-08 16:10:00,16,2,17.839996,25.5,50,20.5,100,24.6
2022-02-08 16:20:00,16,2,17.839996,25.5,51,20.5,100,24.7
2022-02-08 16:30:00,16,2,17.839996,25.5,51,20.5,100,24.6
2022-02-08 16:50:00,16,2,17.279999,25.5,51,20.4,100,24.6
2022-02-08 17:00:00,17,2,17.279999,29.4,51,30.2,100,24.8
2022-02-08 17:10:00,17,2,17.279999,31.8,51,31.5,100,24.9
2022-02-08 17:20:00,17,2,16.730011,32.6,51,32.9,100,25.0
2022-02-08 17:40:00,17,2,16.170013,34.1,50,34.3,100,25.1
2022-02-08 17:50:00,17,2,16.170013,34.8,50,35.1,100,25.2
2022-02-08 18:00:00,18,2,16.170013,35.4,51,35.6,100,25.2
2022-02-08 18:10:00,18,2,15.619995,36.0,51,36.3,100,25.3
2022-02-08 18:20:00,18,2,15.619995,36.5,51,36.9,100,25.4
2022-02-08 18:40:00,18,2,15.059998,37.5,51,37.8,100,25.4
2022-02-08 19:10:00,19,2,15.059998,38.8,50,39.2,100,25.6
2022-02-08 19:20:00,19,2,15.059998,39.3,50,39.6,100,25.6
2022-02-08 19:40:00,19,2,14.5,40.1,50,40.5,100,25.7
2022-02-08 20:00:00,20,2,14.5,40.7,49,41.1,100,25.7
2022-02-08 20:10:00,20,2,14.5,41.0,49,41.4,100,25.8
2022-02-08 20:30:00,20,2,13.950012,41.6,49,42.0,100,25.9
2022-02-08 20:40:00,20,2,13.390015,41.8,49,42.2,100,25.9
2022-02-08 20:50:00,20,2,13.390015,41.6,49,41.9,100,25.9
2022-02-08 21:00:00,21,2,12.839996,41.4,49,41.8,100,25.9
2022-02-08 21:10:00,21,2,12.839996,41.8,49,42.2,100,25.9
2022-02-08 21:20:00,21,2,12.279999,41.7,49,42.1,100,26.0
2022-02-08 21:40:00,21,2,11.730011,41.6,50,41.9,100,26.0
2022-02-08 21:50:00,21,2,11.730011,41.3,49,41.8,100,26.0
2022-02-08 22:20:00,22,2,11.730011,40.4,51,40.7,100,26.0
2022-02-08 22:30:00,22,2,11.730011,39.8,50,40.0,100,25.8
2022-02-08 22:40:00,22,2,11.730011,39.2,45,42.0,0,25.6
2022-02-08 22:50:00,22,2,11.730011,38.7,42,41.3,0,25.4
2022-02-09 09:00:00,9,3,13.390015,11.4,47,22.1,0,23.6
2022-02-09 09:30:00,9,3,14.5,14.0,47,21.8,0,23.6
2022-02-09 09:40:00,9,3,15.059998,13.6,46,21.7,0,23.7
2022-02-09 09:50:00,9,3,15.619995,13.2,46,21.5,0,23.7
2022-02-09 10:10:00,10,3,15.619995,12.3,46,21.3,0,23.7
2022-02-09 10:20:00,10,3,15.619995,13.6,46,21.3,0,23.7
2022-02-09 10:30:00,10,3,16.170013,13.8,46,21.1,0,23.7
2022-02-09 10:40:00,10,3,16.170013,22.2,45,25.3,100,23.7
2022-02-09 10:50:00,10,3,16.730011,23.5,44,24.4,100,23.8
2022-02-09 11:00:00,11,3,16.730011,24.0,44,23.5,100,23.9
2022-02-09 11:10:00,11,3,17.279999,24.2,44,23.5,100,24.0
2022-02-09 11:20:00,11,3,17.279999,24.4,45,23.1,100,24.1
2022-02-09 11:30:00,11,3,17.279999,24.5,45,22.7,100,24.1
2022-02-09 11:50:00,11,3,17.839996,24.9,44,22.2,100,24.2
2022-02-09 12:10:00,12,3,18.390015,24.9,44,22.0,100,24.4
2022-02-09 12:20:00,12,3,18.390015,25.0,43,21.9,100,24.3
2022-02-09 12:30:00,12,3,18.390015,25.1,43,21.8,100,24.4
2022-02-09 13:10:00,13,3,18.950012,25.3,43,21.4,100,24.5
2022-02-09 13:20:00,13,3,18.950012,25.3,43,21.4,100,24.5
2022-02-09 13:40:00,13,3,18.950012,25.5,43,21.4,100,24.5
2022-02-09 13:50:00,13,3,18.950012,25.5,43,21.4,100,24.6
2022-02-09 14:00:00,14,3,18.950012,25.5,43,21.4,100,24.6
2022-02-09 14:20:00,14,3,18.950012,25.5,43,21.4,100,24.6
2022-02-09 14:30:00,14,3,18.950012,25.5,44,21.4,100,24.7
2022-02-09 14:40:00,14,3,18.950012,25.5,44,21.3,100,24.7
2022-02-09 15:00:00,15,3,18.390015,25.6,44,21.2,100,24.8
2022-02-09 15:10:00,15,3,18.390015,25.5,43,21.1,100,24.8
2022-02-09 15:20:00,15,3,18.950012,25.5,42,21.0,100,24.8
2022-02-09 15:40:00,15,3,18.390015,25.4,41,21.0,100,24.7
2022-02-09 16:00:00,16,3,17.839996,25.5,41,21.0,100,24.8
2022-02-09 16:20:00,16,3,17.839996,25.5,41,21.0,100,24.8
2022-02-09 16:30:00,16,3,17.839996,25.5,42,20.9,100,24.8
2022-02-09 16:50:00,16,3,17.279999,25.5,42,20.9,100,24.8
2022-02-09 17:00:00,17,3,17.279999,34.5,42,35.5,100,24.9
2022-02-09 17:10:00,17,3,16.730011,31.0,42,30.6,100,25.1
2022-02-09 17:30:00,17,3,13.02002,33.7,41,33.8,100,25.3
2022-02-09 17:50:00,17,3,15.619995,34.8,41,34.8,100,25.4
2022-02-09 18:10:00,18,3,15.619995,35.8,42,36.0,100,25.5
2022-02-09 18:40:00,18,3,15.059998,37.1,43,37.3,100,25.7
2022-02-09 18:50:00,18,3,15.059998,37.5,43,37.8,100,25.8
2022-02-09 19:10:00,19,3,14.5,38.3,43,38.6,100,25.9
2022-02-09 19:30:00,19,3,14.5,39.0,43,39.2,100,26.1
2022-02-09 19:40:00,19,3,13.950012,39.4,43,39.6,100,26.1
2022-02-09 19:50:00,19,3,13.950012,39.7,43,40.0,100,26.2
2022-02-09 20:00:00,20,3,13.390015,40.0,44,40.2,100,26.2
2022-02-09 20:10:00,20,3,13.390015,40.3,44,40.5,100,26.3
2022-02-09 20:20:00,20,3,13.390015,40.6,44,40.8,100,26.3
2022-02-09 20:30:00,20,3,13.390015,40.8,44,40.9,100,26.3
2022-02-09 20:50:00,20,3,12.839996,41.3,44,41.5,100,26.4
2022-02-09 21:00:00,21,3,12.839996,41.6,44,41.8,100,26.5
2022-02-09 21:10:00,21,3,12.839996,41.8,44,41.9,100,26.5
2022-02-09 21:40:00,21,3,11.730011,41.5,45,41.7,100,26.5
2022-02-09 21:50:00,21,3,11.730011,41.5,45,41.8,100,26.6
2022-02-09 22:00:00,22,3,11.730011,41.8,45,42.0,100,26.6
2022-02-09 22:10:00,22,3,11.730011,41.5,45,41.4,100,26.6
2022-02-09 22:20:00,22,3,11.170013,40.3,45,40.5,100,26.5
2022-02-09 22:30:00,22,3,10.619995,39.7,45,39.7,100,26.3
2022-02-09 22:40:00,22,3,10.619995,38.9,40,41.7,0,26.0
2022-02-09 22:50:00,22,3,11.170013,38.3,35,40.9,0,25.8
2022-02-10 09:20:00,9,4,12.279999,14.9,48,21.6,0,23.7
2022-02-10 09:40:00,9,4,13.390015,15.1,49,21.4,0,23.7
2022-02-10 09:50:00,9,4,13.390015,15.2,48,21.3,0,23.7
2022-02-10 10:00:00,10,4,13.950012,15.2,48,21.2,0,23.7
2022-02-10 10:10:00,10,4,13.950012,14.0,48,21.1,0,23.7
2022-02-10 10:20:00,10,4,13.950012,15.4,47,21.0,0,23.7
2022-02-10 10:40:00,10,4,15.619995,22.1,45,24.8,100,23.8
2022-02-10 10:50:00,10,4,16.170013,23.6,45,23.9,100,23.9
2022-02-10 11:00:00,11,4,16.170013,24.1,45,22.8,100,24.0
2022-02-10 11:10:00,11,4,16.730011,24.3,45,22.3,100,24.1
2022-02-10 11:20:00,11,4,16.730011,24.5,45,21.8,100,24.2
2022-02-10 11:30:00,11,4,16.730011,24.7,45,21.4,100,24.3
2022-02-10 11:40:00,11,4,16.730011,24.8,44,21.4,100,24.3
2022-02-10 12:00:00,12,4,17.279999,24.8,43,21.0,100,24.5
2022-02-10 12:10:00,12,4,17.279999,24.9,43,21.0,100,24.5
2022-02-10 12:20:00,12,4,17.279999,25.0,42,21.0,100,24.5
2022-02-10 12:40:00,12,4,17.839996,25.1,42,20.9,100,24.6
2022-02-10 12:50:00,12,4,17.279999,25.2,42,20.7,100,24.5
2022-02-10 13:00:00,13,4,17.279999,25.3,42,20.5,100,24.6
2022-02-10 13:10:00,13,4,17.839996,25.3,42,20.5,100,24.6
2022-02-10 13:30:00,13,4,17.839996,25.4,41,20.5,100,24.7
2022-02-10 13:40:00,13,4,17.839996,25.4,41,20.5,100,24.7
2022-02-10 13:50:00,13,4,17.839996,25.4,40,20.5,100,24.7
2022-02-10 14:10:00,14,4,18.390015,25.4,40,20.5,100,24.8
2022-02-10 14:20:00,14,4,18.390015,25.5,40,20.5,100,24.7
2022-02-10 14:30:00,14,4,18.390015,25.5,40,20.5,100,24.8
2022-02-10 14:40:00,14,4,18.390015,25.6,40,20.5,100,24.8
2022-02-10 14:50:00,14,4,18.390015,25.6,39,20.5,100,24.8
2022-02-10 15:10:00,15,4,18.390015,25.7,39,20.5,100,24.8
2022-02-10 15:20:00,15,4,17.839996,25.7,39,20.5,100,24.9
2022-02-10 15:30:00,15,4,17.839996,25.6,39,20.5,100,24.9
2022-02-10 15:50:00,15,4,17.839996,25.7,38,20.5,100,25.0
2022-02-10 16:00:00,16,4,17.839996,25.7,38,20.5,100,24.9
2022-02-10 16:10:00,16,4,17.839996,25.7,39,20.6,100,24.9
2022-02-10 16:20:00,16,4,17.839996,25.8,39,20.6,100,24.9
2022-02-10 16:30:00,16,4,17.279999,25.8,39,20.6,100,25.0
2022-02-10 16:40:00,16,4,17.279999,25.7,40,20.7,100,24.9
2022-02-10 16:50:00,16,4,17.279999,25.8,39,20.7,100,24.9
2022-02-10 17:00:00,17,4,17.279999,33.4,40,34.9,100,25.1
2022-02-10 17:20:00,17,4,16.730011,33.0,40,33.2,100,25.3
2022-02-10 17:40:00,17,4,12.309998,34.3,40,34.5,100,25.5
2022-02-10 17:50:00,17,4,12.309998,34.9,39,35.1,100,25.6
2022-02-10 18:10:00,18,4,12.309998,35.9,40,36.2,100,25.6
2022-02-10 18:20:00,18,4,15.059998,36.5,40,36.9,100,25.7
2022-02-10 18:30:00,18,4,15.059998,36.9,40,37.3,100,25.8
2022-02-10 18:40:00,18,4,11.51001,37.4,40,37.8,100,25.8
2022-02-10 18:50:00,18,4,11.51001,37.8,40,38.2,100,25.9
2022-02-10 19:30:00,19,4,11.029999,39.4,41,39.6,100,26.0
2022-02-10 20:00:00,20,4,11.029999,40.0,42,40.5,100,26.1
2022-02-10 20:10:00,20,4,11.029999,40.0,42,40.5,100,26.2
2022-02-10 20:30:00,20,4,13.950012,40.0,42,40.5,100,26.3
2022-02-10 20:40:00,20,4,13.950012,40.0,42,40.5,100,26.3
2022-02-10 20:50:00,20,4,13.390015,40.0,42,40.5,100,26.3
2022-02-10 21:00:00,21,4,13.390015,40.0,42,40.5,100,26.3
2022-02-10 21:30:00,21,4,13.390015,41.5,40,42.0,100,26.4
2022-02-10 21:50:00,21,4,13.390015,41.4,41,41.8,100,26.4
2022-02-10 22:00:00,22,4,13.390015,41.6,40,42.1,100,26.5
2022-02-10 22:10:00,22,4,13.390015,41.3,41,41.7,100,26.4
2022-02-10 22:30:00,22,4,9.860016,39.4,40,39.8,100,26.3
2022-02-10 22:50:00,22,4,9.940002,38.2,32,41.0,0,25.8
